…
```r
## Select only continent and country rows
select(gapminder, continent, country)
```

```
## # A tibble: 1,704 x 2
##    continent     country
##       <fctr>      <fctr>
##  1      Asia Afghanistan
##  2      Asia Afghanistan
##  3      Asia Afghanistan
##  4      Asia Afghanistan
##  5      Asia Afghanistan
##  6      Asia Afghanistan
##  7      Asia Afghanistan
##  8      Asia Afghanistan
##  9      Asia Afghanistan
## 10      Asia Afghanistan
## # ... with 1,694 more rows
```
…
```r
#Take all countries in Europe that have a GPD per capita greater than 10000, and select all variables except gdpPercap
gapminder %>%
  filter(continent=="Europe", gdpPercap>10000) %>%
  select(-gdpPercap)
```

```
## # A tibble: 214 x 5
##    country continent  year lifeExp     pop
##     <fctr>    <fctr> <int>   <dbl>   <int>
##  1 Austria    Europe  1962  69.540 7129864
##  2 Austria    Europe  1967  70.140 7376998
##  3 Austria    Europe  1972  70.630 7544201
##  4 Austria    Europe  1977  72.170 7568430
##  5 Austria    Europe  1982  73.180 7574613
##  6 Austria    Europe  1987  74.940 7578903
##  7 Austria    Europe  1992  76.040 7914969
##  8 Austria    Europe  1997  77.510 8069876
##  9 Austria    Europe  2002  78.980 8148312
## 10 Austria    Europe  2007  79.829 8199783
## # ... with 204 more rows
```

```r
#Order the data frame by year, then descending by life expectancy. Rearrange data frame so year comes first then life expectancy
gapminder %>%
  arrange(pop, desc(lifeExp)) %>%
  select(year, lifeExp, everything())
```

```
## # A tibble: 1,704 x 6
##     year lifeExp               country continent   pop gdpPercap
##    <int>   <dbl>                <fctr>    <fctr> <int>     <dbl>
##  1  1952  46.471 Sao Tome and Principe    Africa 60011  879.5836
##  2  1957  48.945 Sao Tome and Principe    Africa 61325  860.7369
##  3  1952  34.812              Djibouti    Africa 63149 2669.5295
##  4  1962  51.893 Sao Tome and Principe    Africa 65345 1071.5511
##  5  1967  54.425 Sao Tome and Principe    Africa 70787 1384.8406
##  6  1957  37.328              Djibouti    Africa 71851 2864.9691
##  7  1972  56.480 Sao Tome and Principe    Africa 76595 1532.9853
##  8  1977  58.550 Sao Tome and Principe    Africa 86796 1737.5617
##  9  1962  39.693              Djibouti    Africa 89898 3020.9893
## 10  1982  60.351 Sao Tome and Principe    Africa 98593 1890.2181
## # ... with 1,694 more rows
```

You can use mutate to create new variables that are calculated from other variables within the data frame. 

```r
mutate(gapminder, 
       gdp = gdpPercap * pop, 
       gdpBill = round(gdp/1000000000, 1))
```

```
## # A tibble: 1,704 x 8
##        country continent  year lifeExp      pop gdpPercap         gdp
##         <fctr>    <fctr> <int>   <dbl>    <int>     <dbl>       <dbl>
##  1 Afghanistan      Asia  1952  28.801  8425333  779.4453  6567086330
##  2 Afghanistan      Asia  1957  30.332  9240934  820.8530  7585448670
##  3 Afghanistan      Asia  1962  31.997 10267083  853.1007  8758855797
##  4 Afghanistan      Asia  1967  34.020 11537966  836.1971  9648014150
##  5 Afghanistan      Asia  1972  36.088 13079460  739.9811  9678553274
##  6 Afghanistan      Asia  1977  38.438 14880372  786.1134 11697659231
##  7 Afghanistan      Asia  1982  39.854 12881816  978.0114 12598563401
##  8 Afghanistan      Asia  1987  40.822 13867957  852.3959 11820990309
##  9 Afghanistan      Asia  1992  41.674 16317921  649.3414 10595901589
## 10 Afghanistan      Asia  1997  41.763 22227415  635.3414 14121995875
## # ... with 1,694 more rows, and 1 more variables: gdpBill <dbl>
```

Summarize reduces the tibble to summary statistics, which is very useful when used with group_by

```r
gapminder %>% 
    group_by(country) %>% 
    summarize(mean_pop=mean(pop), sd_pop=sd(pop))
```

```
## # A tibble: 142 x 3
##        country   mean_pop     sd_pop
##         <fctr>      <dbl>      <dbl>
##  1 Afghanistan 15823715.4  7114583.5
##  2     Albania  2580249.2   828585.5
##  3     Algeria 19875406.2  8613355.3
##  4      Angola  7309390.1  2672280.6
##  5   Argentina 28602239.9  7546609.0
##  6   Australia 14649312.5  3915203.0
##  7     Austria  7583298.4   437660.0
##  8     Bahrain   373913.2   210893.3
##  9  Bangladesh 90755395.3 34711660.7
## 10     Belgium  9725118.7   520635.9
## # ... with 132 more rows
```

```r
#Find the minimum GDP per capita experienced by each country
gapminder %>%
  group_by(country) %>%
  summarize(minGDP = min(gdpPercap))
```

```
## # A tibble: 142 x 2
##        country     minGDP
##         <fctr>      <dbl>
##  1 Afghanistan   635.3414
##  2     Albania  1601.0561
##  3     Algeria  2449.0082
##  4      Angola  2277.1409
##  5   Argentina  5911.3151
##  6   Australia 10039.5956
##  7     Austria  6137.0765
##  8     Bahrain  9867.0848
##  9  Bangladesh   630.2336
## 10     Belgium  8343.1051
## # ... with 132 more rows
```

```r
#Find how many years of records does each country have
gapminder %>%
  group_by(country) %>%
  summarize(n_distinct(year))
```

```
## # A tibble: 142 x 2
##        country `n_distinct(year)`
##         <fctr>              <int>
##  1 Afghanistan                 12
##  2     Albania                 12
##  3     Algeria                 12
##  4      Angola                 12
##  5   Argentina                 12
##  6   Australia                 12
##  7     Austria                 12
##  8     Bahrain                 12
##  9  Bangladesh                 12
## 10     Belgium                 12
## # ... with 132 more rows
```
…
5. Robust linear regression: 
The rlm function in the MASS package is your friend

## More dplyr
One of the most powerful functions is using **mutate()** with grouped tibble. 

```r
# Exercise 1: Calculate the growth in population since the first year on record for each country
gapminder %>%
  group_by(country) %>%
  mutate(pop_growth = pop-pop[1])
```

```
## # A tibble: 1,704 x 7
## # Groups:   country [142]
##        country continent  year lifeExp      pop gdpPercap pop_growth
##         <fctr>    <fctr> <int>   <dbl>    <int>     <dbl>      <int>
##  1 Afghanistan      Asia  1952  28.801  8425333  779.4453          0
##  2 Afghanistan      Asia  1957  30.332  9240934  820.8530     815601
##  3 Afghanistan      Asia  1962  31.997 10267083  853.1007    1841750
##  4 Afghanistan      Asia  1967  34.020 11537966  836.1971    3112633
##  5 Afghanistan      Asia  1972  36.088 13079460  739.9811    4654127
##  6 Afghanistan      Asia  1977  38.438 14880372  786.1134    6455039
##  7 Afghanistan      Asia  1982  39.854 12881816  978.0114    4456483
##  8 Afghanistan      Asia  1987  40.822 13867957  852.3959    5442624
##  9 Afghanistan      Asia  1992  41.674 16317921  649.3414    7892588
## 10 Afghanistan      Asia  1997  41.763 22227415  635.3414   13802082
## # ... with 1,694 more rows
```

```r
# What about growth compared to 1972?
gapminder %>%
  group_by(country) %>%
  mutate(pop_growth = pop-pop[year==1972])
```

```
## # A tibble: 1,704 x 7
## # Groups:   country [142]
##        country continent  year lifeExp      pop gdpPercap pop_growth
##         <fctr>    <fctr> <int>   <dbl>    <int>     <dbl>      <int>
##  1 Afghanistan      Asia  1952  28.801  8425333  779.4453   -4654127
##  2 Afghanistan      Asia  1957  30.332  9240934  820.8530   -3838526
##  3 Afghanistan      Asia  1962  31.997 10267083  853.1007   -2812377
##  4 Afghanistan      Asia  1967  34.020 11537966  836.1971   -1541494
##  5 Afghanistan      Asia  1972  36.088 13079460  739.9811          0
##  6 Afghanistan      Asia  1977  38.438 14880372  786.1134    1800912
##  7 Afghanistan      Asia  1982  39.854 12881816  978.0114    -197644
##  8 Afghanistan      Asia  1987  40.822 13867957  852.3959     788497
##  9 Afghanistan      Asia  1992  41.674 16317921  649.3414    3238461
## 10 Afghanistan      Asia  1997  41.763 22227415  635.3414    9147955
## # ... with 1,694 more rows
```
…
1. Suppose we want to calculate some quantity for each country in the gapminder data set. For each of the following quantities, indicate whether the function is vectorized, aggregate, or window, and use dplyr functions to calculate the specified variable.
    a) The change in population from 1962 to 1972.
    

```r
## aggregrate
gapminder %>%
  group_by(country) %>%
  summarize(pop_change = pop[year==1972]-pop[year==1962])
```

```
## # A tibble: 142 x 2
##        country pop_change
##         <fctr>      <int>
##  1 Afghanistan    2812377
##  2     Albania     535417
##  3     Algeria    3759839
##  4      Angola    1068843
##  5   Argentina    3496016
##  6   Australia    2382032
##  7     Austria     414337
##  8     Bahrain      58937
##  9  Bangladesh   13920006
## 10     Belgium     490700
## # ... with 132 more rows
```

    b) Population in Billions

```r
## vectorize
gapminder %>%
  group_by(country) %>%
  mutate(pop_billion = pop/10^9)
```

```
## # A tibble: 1,704 x 7
## # Groups:   country [142]
##        country continent  year lifeExp      pop gdpPercap pop_billion
##         <fctr>    <fctr> <int>   <dbl>    <int>     <dbl>       <dbl>
##  1 Afghanistan      Asia  1952  28.801  8425333  779.4453 0.008425333
##  2 Afghanistan      Asia  1957  30.332  9240934  820.8530 0.009240934
##  3 Afghanistan      Asia  1962  31.997 10267083  853.1007 0.010267083
##  4 Afghanistan      Asia  1967  34.020 11537966  836.1971 0.011537966
##  5 Afghanistan      Asia  1972  36.088 13079460  739.9811 0.013079460
##  6 Afghanistan      Asia  1977  38.438 14880372  786.1134 0.014880372
##  7 Afghanistan      Asia  1982  39.854 12881816  978.0114 0.012881816
##  8 Afghanistan      Asia  1987  40.822 13867957  852.3959 0.013867957
##  9 Afghanistan      Asia  1992  41.674 16317921  649.3414 0.016317921
## 10 Afghanistan      Asia  1997  41.763 22227415  635.3414 0.022227415
## # ... with 1,694 more rows
```

    c) Lagged gdpPercap

```r
## window
gapminder %>% 
    group_by(country) %>% 
    arrange(year) %>% 
    mutate(lag_gdpPercap=lag(gdpPercap)) %>% 
    filter(!is.na(lag_gdpPercap))
```

```
## # A tibble: 1,562 x 7
## # Groups:   country [142]
##        country continent  year lifeExp      pop  gdpPercap lag_gdpPercap
##         <fctr>    <fctr> <int>   <dbl>    <int>      <dbl>         <dbl>
##  1 Afghanistan      Asia  1957  30.332  9240934   820.8530      779.4453
##  2     Albania    Europe  1957  59.280  1476505  1942.2842     1601.0561
##  3     Algeria    Africa  1957  45.685 10270856  3013.9760     2449.0082
##  4      Angola    Africa  1957  31.999  4561361  3827.9405     3520.6103
##  5   Argentina  Americas  1957  64.399 19610538  6856.8562     5911.3151
##  6   Australia   Oceania  1957  70.330  9712569 10949.6496    10039.5956
##  7     Austria    Europe  1957  67.480  6965860  8842.5980     6137.0765
##  8     Bahrain      Asia  1957  53.832   138655 11635.7995     9867.0848
##  9  Bangladesh      Asia  1957  39.348 51365468   661.6375      684.2442
## 10     Belgium    Europe  1957  69.240  8989111  9714.9606     8343.1051
## # ... with 1,552 more rows
```
…
##Basic Join:
# Drop unimportant variables so it's easier to understand the join results.
flights2 <- flights %>% select(year:day, hour, origin, dest, tailnum, carrier)

#join by carrier
flights2 %>% 
  left_join(airlines)
```

```
## # A tibble: 336,776 x 9
##     year month   day  hour origin  dest tailnum carrier
##    <int> <int> <int> <dbl>  <chr> <chr>   <chr>   <chr>
##  1  2013     1     1     5    EWR   IAH  N14228      UA
##  2  2013     1     1     5    LGA   IAH  N24211      UA
##  3  2013     1     1     5    JFK   MIA  N619AA      AA
##  4  2013     1     1     5    JFK   BQN  N804JB      B6
##  5  2013     1     1     6    LGA   ATL  N668DN      DL
##  6  2013     1     1     5    EWR   ORD  N39463      UA
##  7  2013     1     1     6    EWR   FLL  N516JB      B6
##  8  2013     1     1     6    LGA   IAD  N829AS      EV
##  9  2013     1     1     6    JFK   MCO  N593JB      B6
## 10  2013     1     1     6    LGA   ORD  N3ALAA      AA
## # ... with 336,766 more rows, and 1 more variables: name <chr>
```
Each mutating join takes an argument **by** that controls which variables are used to match observations in the two tables. There are a few ways to specify it:
* by=NULL, dplyr will will use all variables that appear in both tables, a natural join.

```r
# the flights and weather tables match on their common variables: year, month, day, hour and origin
flights2 %>% left_join(weather)
```

```
## Joining, by = c("year", "month", "day", "hour", "origin")
```

```
## # A tibble: 336,776 x 18
##     year month   day  hour origin  dest tailnum carrier  temp  dewp humid
##    <dbl> <dbl> <int> <dbl>  <chr> <chr>   <chr>   <chr> <dbl> <dbl> <dbl>
##  1  2013     1     1     5    EWR   IAH  N14228      UA    NA    NA    NA
##  2  2013     1     1     5    LGA   IAH  N24211      UA    NA    NA    NA
##  3  2013     1     1     5    JFK   MIA  N619AA      AA    NA    NA    NA
##  4  2013     1     1     5    JFK   BQN  N804JB      B6    NA    NA    NA
##  5  2013     1     1     6    LGA   ATL  N668DN      DL 39.92 26.06 57.33
##  6  2013     1     1     5    EWR   ORD  N39463      UA    NA    NA    NA
##  7  2013     1     1     6    EWR   FLL  N516JB      B6 39.02 26.06 59.37
##  8  2013     1     1     6    LGA   IAD  N829AS      EV 39.92 26.06 57.33
##  9  2013     1     1     6    JFK   MCO  N593JB      B6 39.02 26.06 59.37
## 10  2013     1     1     6    LGA   ORD  N3ALAA      AA 39.92 26.06 57.33
## # ... with 336,766 more rows, and 7 more variables: wind_dir <dbl>,
## #   wind_speed <dbl>, wind_gust <dbl>, precip <dbl>, pressure <dbl>,
## #   visib <dbl>, time_hour <dttm>
```

* by="x", join is controlled by a character vector

```r
# flights and planes have year columns, but they mean different things so we only want to join by tailnum. 
flights2 %>% left_join(planes, by = "tailnum")
```

```
## # A tibble: 336,776 x 16
##    year.x month   day  hour origin  dest tailnum carrier year.y
##     <int> <int> <int> <dbl>  <chr> <chr>   <chr>   <chr>  <int>
##  1   2013     1     1     5    EWR   IAH  N14228      UA   1999
##  2   2013     1     1     5    LGA   IAH  N24211      UA   1998
##  3   2013     1     1     5    JFK   MIA  N619AA      AA   1990
##  4   2013     1     1     5    JFK   BQN  N804JB      B6   2012
##  5   2013     1     1     6    LGA   ATL  N668DN      DL   1991
##  6   2013     1     1     5    EWR   ORD  N39463      UA   2012
##  7   2013     1     1     6    EWR   FLL  N516JB      B6   2000
##  8   2013     1     1     6    LGA   IAD  N829AS      EV   1998
##  9   2013     1     1     6    JFK   MCO  N593JB      B6   2004
## 10   2013     1     1     6    LGA   ORD  N3ALAA      AA     NA
## # ... with 336,766 more rows, and 7 more variables: type <chr>,
## #   manufacturer <chr>, model <chr>, engines <int>, seats <int>,
## #   speed <int>, engine <chr>
```

* by = c("x" = "a"), join is controlled by a named character vector. This will match variable *x* in table x to variable *a* in table a. The variables from use will be used in the output.

```r
# Each flight has an origin and destination airport, so we need to specify which one we want to join to
flights2 %>% left_join(airports, c("dest" = "faa"))
```

```
## # A tibble: 336,776 x 15
##     year month   day  hour origin  dest tailnum carrier
##    <int> <int> <int> <dbl>  <chr> <chr>   <chr>   <chr>
##  1  2013     1     1     5    EWR   IAH  N14228      UA
##  2  2013     1     1     5    LGA   IAH  N24211      UA
##  3  2013     1     1     5    JFK   MIA  N619AA      AA
##  4  2013     1     1     5    JFK   BQN  N804JB      B6
##  5  2013     1     1     6    LGA   ATL  N668DN      DL
##  6  2013     1     1     5    EWR   ORD  N39463      UA
##  7  2013     1     1     6    EWR   FLL  N516JB      B6
##  8  2013     1     1     6    LGA   IAD  N829AS      EV
##  9  2013     1     1     6    JFK   MCO  N593JB      B6
## 10  2013     1     1     6    LGA   ORD  N3ALAA      AA
## # ... with 336,766 more rows, and 7 more variables: name <chr>, lat <dbl>,
## #   lon <dbl>, alt <int>, tz <dbl>, dst <chr>, tzone <chr>
```

```r
flights2 %>% left_join(airports, c("origin" = "faa"))
```

```
## # A tibble: 336,776 x 15
##     year month   day  hour origin  dest tailnum carrier
##    <int> <int> <int> <dbl>  <chr> <chr>   <chr>   <chr>
##  1  2013     1     1     5    EWR   IAH  N14228      UA
##  2  2013     1     1     5    LGA   IAH  N24211      UA
##  3  2013     1     1     5    JFK   MIA  N619AA      AA
##  4  2013     1     1     5    JFK   BQN  N804JB      B6
##  5  2013     1     1     6    LGA   ATL  N668DN      DL
##  6  2013     1     1     5    EWR   ORD  N39463      UA
##  7  2013     1     1     6    EWR   FLL  N516JB      B6
##  8  2013     1     1     6    LGA   IAD  N829AS      EV
##  9  2013     1     1     6    JFK   MCO  N593JB      B6
## 10  2013     1     1     6    LGA   ORD  N3ALAA      AA
## # ... with 336,766 more rows, and 7 more variables: name <chr>, lat <dbl>,
## #   lon <dbl>, alt <int>, tz <dbl>, dst <chr>, tzone <chr>
```
…
2. **Filtering joins**, which filter observations from one table based on whether or not they match an observation in the other table. Filtering joins match obserations in the same way as mutating joins, but affect the observations, not the variables. There are two types:
a) **semi_join(x, y)** keeps all observations in x that have a match in y.
b) **anti_join(x, y)** drops all observations in x that have a match in y

These are most useful for diagnosing join mismatches:

```r
# there are many flights in the nycflights13 dataset that don’t have a matching tail number in the planes table
flights %>% 
  anti_join(planes, by = "tailnum") %>% 
  count(tailnum, sort = TRUE)
```

```
## # A tibble: 722 x 2
##    tailnum     n
##      <chr> <int>
##  1    <NA>  2512
##  2  N725MQ   575
##  3  N722MQ   513
##  4  N723MQ   507
##  5  N713MQ   483
##  6  N735MQ   396
##  7  N0EGMQ   371
##  8  N534MQ   364
##  9  N542MQ   363
## 10  N531MQ   349
## # ... with 712 more rows
```
…
```r
left_join(gapminder, areas)
```

```
## Joining, by = "country"
```

```
## Warning: Column `country` joining factors with different levels, coercing
## to character vector
```

```
## # A tibble: 1,704 x 7
##        country continent  year lifeExp      pop gdpPercap  area
##          <chr>    <fctr> <int>   <dbl>    <int>     <dbl> <dbl>
##  1 Afghanistan      Asia  1952  28.801  8425333  779.4453    NA
##  2 Afghanistan      Asia  1957  30.332  9240934  820.8530    NA
##  3 Afghanistan      Asia  1962  31.997 10267083  853.1007    NA
##  4 Afghanistan      Asia  1967  34.020 11537966  836.1971    NA
##  5 Afghanistan      Asia  1972  36.088 13079460  739.9811    NA
##  6 Afghanistan      Asia  1977  38.438 14880372  786.1134    NA
##  7 Afghanistan      Asia  1982  39.854 12881816  978.0114    NA
##  8 Afghanistan      Asia  1987  40.822 13867957  852.3959    NA
##  9 Afghanistan      Asia  1992  41.674 16317921  649.3414    NA
## 10 Afghanistan      Asia  1997  41.763 22227415  635.3414    NA
## # ... with 1,694 more rows
```
…
